// Jest Snapshot v1, https://goo.gl/fbAQLP

exports[`Snapshot 1`] = `"<div class=\\"modalBackground\\"><div data-testid=\\"modal\\" class=\\"modalContent\\"><header class=\\"modalContentHeader\\"></header><div><p class=\\"modalContentText\\">testAction itemName?</p><div class=\\"modalButtons\\"></div></div></div></div>"`;
